{
   
    "powerplants": [
      {
        "name": "gasfiredbig1",
        "type": "gasfired",
        "efficiency": 0.53,
        "pmin": 100,
        "pmax": 460
      },
      {
        "name": "gasfiredbig2",
        "type": "gasfired",
        "efficiency": 0.53,
        "pmin": 100,
        "pmax": 460
      },
      {
        "name": "gasfiredsomewhatsmaller",
        "type": "gasfired",
        "efficiency": 0.37,
        "pmin": 40,
        "pmax": 210
      },
      {
        "name": "tj1",
        "type": "turbojet",
        "efficiency": 0.3,
        "pmin": 0,
        "pmax": 16
      },
      {
        "name": "windpark1",
        "type": "windturbine",
        "efficiency": 1,
        "pmin": 0,
        "pmax": 150
      },
      {
        "name": "windpark2",
        "type": "windturbine",
        "efficiency": 1,
        "pmin": 0,
        "pmax": 36
      }
    ]
  }